grade,echelon,indice
élève,1,314
stagiaire,1,316
stagiaire,2,322
normal,1,355
normal,2,365
normal,3,381
normal,4,396
normal,5,413
normal,6,429
normal,7,447
normal,8,464
normal,9,486
normal,10,511
principal,1,416
principal,2,432
principal,3,451
principal,4,468
principal,5,486
principal,6,504
principal,7,520
principal,8,538
exceptionnel,1,483
exceptionnel,2,500
exceptionnel,3,517
exceptionnel,4,538
exceptionnel,5,561
exceptionnel,6,571
exceptionnel,7,593
exceptionnel,8,608