grade,echelon,indice
RTAC,1,562
RTAC,2,593
RTAC,3,626
RTAC,4,660
RTAC,5,687
RTAC,6,725
RTAC,7,761
CTAC,1,661
CTAC,2,710
CTAC,3,755
CTAC,4,797
CTAC,5,843
CTAC,6,890
CTAC,7,946
CTAC,8,995
CSTAC,1,741
CSTAC,2,784
CSTAC,3,828
CSTAC,4,876
CSTAC,5,929
CSTAC,6,977
CSTAC,7,1027
CUTAC,1,784
CUTAC,2,837
CUTAC,3,890
CUTAC,4,946
CUTAC,5,995
CUTAC,6,1027
CUTAC,7A1,HEA1
CUTAC,7A2,HEA2
CUTAC,7A3,HEA3
CST,1,862
CST,2,912
CST,3,1027
CST,4A1,HEA1
CST,4A2,HEA2
CST,4A3,HEA3
CST,5B1,HEB1
CST,5B2,HEB2
CST,5B3,HEB3
CSTP,1,912
CSTP,2,1027
CSTP,3A1,HEA1
CSTP,3A2,HEA2
CSTP,3A3,HEA3
CSTP,4B1,HEB1
CSTP,4B2,HEB2
CSTP,4B3,HEB3
CSTP,5BB1,HEBB1
CSTP,5BB2,HEBB2
CSTP,5BB3,HEBB3
