brut,court
Ingénieurs du contrôle de la navigation aérienne (ICNA) en formation qui ne sont pas titulaires d'une mention intermédiaire d'unité,ICNA en formation qui ne sont pas titulaires d’une MU
Ingénieurs électroniciens des systèmes de la sécurité aérienne (IESSA) dès leur première affectation dans un centre,IESSA dès leur première affectation dans un centre
