grade,echelon,indice
élève,1,321
stagiaire,1,334
normal,1,390
normal,2,410
normal,3,431
normal,4,456
normal,5,483
normal,6,518
normal,7,532
normal,8,556
normal,9,572
divisionnaire,1,432
divisionnaire,2,457
divisionnaire,3,484
divisionnaire,4,516
divisionnaire,5,552
divisionnaire,6,580
divisionnaire,7,612
divisionnaire,8,645
divisionnaire,9,670
divisionnaire,10,685
divisionnaire,11,725
divisionnaire,12,760
divisionnaire,13,798
divisionnaire,14,9999
en chef,1,685
en chef,2,725
en chef,3,760
en chef,4,798
en chef,5,9999
en chef,6A1,9999
en chef,6A2,9999
en chef,6A3,9999